projects/zero-cost-logic-analyzer/lanaCOM_0.1/csrc/vcdTrans/sample_spi.vcd
$date
  Sun Sep 28 17:52:48 2008
$end
$version
  lanaCOM.exe, Revision 0.1, Sep 26 2008 - Copyright (c) 2008, H.-J. Heinrichs
$end
$timescale 1us $end
$scope module lanaCOM $end
$var wire 1 ' SSN $end
$var wire 1 ( SCK $end
$var wire 1 ) MOSI $end
$var wire 1 * MISO $end
$var wire 1 $ LOWACC $end
$var wire 32 % TRGCNT $end
$upscope $end
$enddefinitions $end
#0
1'
1(
1)
0*
b00000000000000000000000000000000 %
0$
#10000
0'
#10100
0(
#10110
1(
#10120
0(
#10130
1(
#10140
0(
#10150
1(
#10160
0(
#10170
1(
#10180
0(
#10190
1(
#10200
0(
#10210
1(
#10220
0(
#10230
1(
#10240
0(
#10250
1(
#10300
0)
1*
#10400
0(
#10410
1(
#10420
0(
#10430
1(
#10440
0(
#10450
1(
#10460
0(
#10470
1(
#10480
0(
#10490
1(
#10500
0(
#10510
1(
#10520
0(
#10530
1(
#10540
0(
#10550
1(
#10700
1'
#19000
0'
#20000
1)
0*
#20100
0(
#20110
1(
#20120
0(
#20130
1(
#20140
0(
#20150
1(
#20160
0(
#20170
1(
#20180
0(
#20190
1(
#20200
0(
#20210
1(
#20220
0(
#20230
1(
#20240
0(
#20250
1(
#90000
1'
