projects/zero-cost-logic-analyzer/lanaCOM_0.1/csrc/vcdTrans/sample_i2c.vcd
$date
  Sun Sep 28 17:52:48 2008
$end
$version
  lanaCOM.exe, Revision 0.1, Sep 26 2008 - Copyright (c) 2008, H.-J. Heinrichs
$end
$timescale 1us $end
$scope module lanaCOM $end
$var wire 1 ' SDA $end
$var wire 1 ( DSR $end
$var wire 1 ) SCL $end
$var wire 1 * DCD $end
$var wire 1 $ LOWACC $end
$var wire 32 % TRGCNT $end
$upscope $end
$enddefinitions $end
#0
0'
0(
0)
0*
#0
b00000000000000000000000000000000 %
0$
#15348
1$
#15351
0$
#31104
1$
#31107
0$
#45251
1$
#45253
0$
#45560
1$
#45563
0$
#45715
1$
#45717
0$
#45839
1$
#45841
0$
#46094
1$
#46097
0$
#46260
1$
#46263
0$
#46373
1$
#46375
0$
#46637
1$
#46683
0$
#46840
1$
#46843
0$
#46948
1$
#46951
0$
#47246
1$
#47248
0$
#60458
1$
#60461
0$
#75936
1$
#75938
0$
#91705
1$
#91708
0$
#101193
1$
#101196
0$
#116998
1$
#117000
0$
#129209
1$
#129211
0$
#144918
1$
#144921
0$
#160510
1$
#160512
0$
#176142
1$
#176145
0$
#191827
1$
#191829
0$
#207440
1$
#207442
0$
#222983
1$
#222985
0$
#238779
1$
#238782
0$
#254271
1$
#254274
0$
#269894
1$
#269896
0$
#285512
1$
#285513
0$
#301140
1$
#301143
0$
#316738
1$
#316740
0$
#332388
1$
#332390
0$
#338313
1$
#338316
0$
#347791
1$
#347793
0$
#363574
1$
#363576
0$
#379031
1$
#379033
0$
#394705
1$
#394708
0$
#410292
1$
#410295
0$
#426007
1$
#426009
0$
#429988
1)
#430003
1'
#441541
1$
#441544
0$
#457236
1$
#457238
0$
#472854
1$
#472856
0$
#488450
1$
#488453
0$
#504055
1$
#504057
0$
#519779
1$
#519782
0$
#527338
0'
#527338
b00000000000000000000000000000001 %
#527343
0)
#527353
1'
#527356
1)
#527361
0)
#527363
0'
#527366
1)
#527371
0)
#527373
1'
#527376
1)
#527383
0'
0)
#527388
1)
#527393
0)
#527398
1)
#527403
0)
#527408
1)
#527413
0)
#527418
1)
#527423
0)
#527428
1)
#527433
0)
#527438
1)
#527443
1'
0)
#527452
0'
#527457
1)
#527462
0)
#527467
1)
#527472
0)
#527477
1)
#527485
0)
#527490
1)
#527494
0)
#527499
1)
#527504
0)
#527509
1)
#527514
1'
0)
#527519
1)
#527524
0'
0)
#527529
1)
#527534
0)
#527539
1)
#527544
0)
#527556
1)
#527561
1'
#527566
0'
#527566
b00000000000000000000000000000010 %
#527571
0)
#527581
1'
#527586
1)
#527591
0'
0)
#527596
1)
#527601
1'
0)
#527606
1)
#527611
0'
0)
#527616
1)
#527621
0)
#527626
1)
#527631
0)
#527636
1)
#527641
0)
#527646
1)
#527650
0)
#527652
1'
#527655
1)
#527660
0)
#527663
0'
#527668
1)
#527673
0)
#527685
1)
#527690
0)
#527695
1)
#527700
0)
#527705
1)
#527709
0)
#527715
1)
#527720
0)
#527725
1)
#527730
0)
#527735
1)
#527740
0)
#527745
1)
#527752
0)
#527757
1)
#527761
0)
#527766
1)
#527772
0)
#527787
1)
#527792
0)
#527797
1)
#527802
0)
#527807
1)
#527811
0)
#527816
1)
#527823
0)
#527829
1)
#527834
0)
#527839
1)
#527844
0)
#527849
1)
#527854
0)
#527859
1)
#527863
0)
#527868
1)
#527873
0)
#527891
1)
#527896
0)
#527901
1)
#527906
0)
#527910
1)
#527915
0)
#527920
1)
#527925
0)
#527930
1)
#527935
0)
#527940
1)
#527945
0)
#527950
1)
#527955
0)
#527959
1)
#527964
0)
#527967
1'
#527969
1)
#527977
0)
#527987
0'
#527992
1)
#527997
1'
#528001
0'
#528001
b00000000000000000000000000000011 %
#528009
0)
#528016
1'
#528021
1)
#528026
0'
0)
#528031
1)
#528036
1'
0)
#528041
1)
#528046
0'
0)
#528051
1)
#528056
0)
#528061
1)
#528066
0)
#528071
1)
#528076
0)
#528081
1)
#528086
0)
#528090
1)
#528098
0)
#528103
1)
#528108
1'
0)
#528118
0'
#528123
1)
#528128
0)
#528133
1)
#528138
0)
#528142
1)
#528147
0)
#528152
1)
#528157
0)
#528162
1)
#528167
1'
0)
#528172
1)
#528177
0)
#528180
0'
#528182
1)
#528187
0)
#528190
1'
#528191
1)
#528199
0'
0)
#528204
1)
#528209
0)
#528219
1)
#528227
1'
#528231
0'
#528231
b00000000000000000000000000000100 %
#528236
0)
#528243
1'
#528248
1)
#528253
0'
0)
#528259
1)
#528264
1'
0)
#528269
1)
#528274
0'
0)
#528279
1)
#528284
0)
#528289
1)
#528294
0)
#528298
1)
#528305
0)
#528310
1)
#528316
1'
0)
#528321
1)
#528326
0'
0)
#528331
1)
#528336
0)
#528347
1)
#528352
0)
#528357
1)
#528362
0)
#528367
1)
#528373
0)
#528380
1)
#528385
0)
#528390
1)
#528394
0)
#528399
1)
#528404
0)
#528409
1)
#528414
1'
0)
#528419
1)
#528424
0'
0)
#528430
1)
#528435
0)
#528451
1)
#528456
0)
#528461
1)
#528466
0)
#528471
1)
#528476
0)
#528481
1)
#528486
0)
#528491
1)
#528496
0)
#528501
1)
#528506
0)
#528511
1)
#528516
0)
#528518
1'
#528521
1)
#528526
0)
#528533
1)
#528538
0)
#528548
0'
#528553
1)
#528558
1'
#528568
0'
#528568
b00000000000000000000000000000101 %
#528575
0)
#528582
1'
#528587
1)
#528592
0'
0)
#528597
1)
#528602
1'
0)
#528607
1)
#528612
0'
0)
#528617
1)
#528621
0)
#528626
1)
#528632
0)
#528637
1)
#528642
0)
#528647
1)
#528652
0)
#528657
1)
#528662
0)
#528669
1)
#528673
1'
0)
#528683
0'
#528689
1)
#528694
0)
#528699
1)
#528704
0)
#528709
1)
#528714
0)
#528719
1)
#528723
0)
#528728
1)
#528733
1'
0)
#528738
1)
#528743
0)
#528746
0'
#528748
1)
#528753
0)
#528756
1'
#528758
1)
#528765
0'
0)
#528770
1)
#528775
0)
#528787
1)
#528792
0)
#528797
1)
#528803
0)
#528808
1)
#528813
0)
#528817
1)
#528822
0)
#528827
1)
#528832
0)
#528839
1)
#528844
0)
#528849
1)
#528854
1'
0)
#528860
1)
#528864
0'
0)
#528869
1)
#528874
0)
#528886
1)
#528891
0)
#528896
1)
#528901
0)
#528908
1)
#528913
0)
#528918
1)
#528923
0)
#528928
1)
#528933
0)
#528938
1)
#528943
0)
#528948
1)
#528953
1'
0)
#528958
1)
#528963
0'
0)
#528968
1)
#528973
0)
#528985
1)
#528990
1'
#535311
1$
#535314
0$
#550959
1$
#550962
0$
#566556
1$
#566559
0$
#582243
1$
#582245
0$
#597822
1$
#597824
0$
#613471
1$
#613474
0$
#628427
1$
#628430
0$
#644133
1$
#644135
0$
#659712
1$
#659715
0$
#675453
1$
#675455
0$
#690977
1$
#690979
0$
#706704
1$
#706708
0$
#722207
1$
#722210
0$
#737886
1$
#737888
0$
#753440
1$
#753443
0$
#769132
1$
#769134
0$
#784703
1$
#784705
0$
#800500
1$
#800502
0$
#815960
1$
#815963
0$
#831733
1$
#831735
0$
#847216
1$
#847218
0$
#862936
1$
#862938
0$
#878464
1$
#878466
0$
#894139
1$
#894142
0$
#909763
1$
#909766
0$
#925408
1$
#925410
0$
#941022
1$
#941025
0$
#956730
1$
#956734
0$
#972023
1$
#972025
0$
#987787
1$
#987790
0$
#1003264
1$
#1003267
0$
#1018990
1$
#1018994
0$
#1034522
1$
#1034524
0$
#1034792
1$
#1034839
0$
#1034991
1$
#1034994
0$
#1035107
1$
#1035109
0$
#1035367
1$
#1035411
0$
#1035647
1$
#1035649
0$
#1035769
1$
#1035771
0$
#1036083
1$
#1036129
0$
#1036300
1$
#1036302
0$
#1036418
1$
#1036420
0$
#1036649
1$
#1036652
0$
#1049870
1$
#1049873
0$
#1065343
1$
#1065346
0$
#1081150
1$
#1081153
0$
#1096612
1$
#1096615
0$
#1112284
1$
#1112286
0$
#1127919
1$
#1127922
0$
#1143579
1$
#1143581
0$
#1158934
1$
#1158937
0$
#1174639
1$
#1174642
0$
#1189723
1$
#1189725
0$
#1205415
1$
#1205418
0$
#1220984
1$
#1220986
0$
#1236673
1$
#1236676
0$
#1252013
1$
#1252015
0$
#1267818
1$
#1267821
0$
#1283279
1$
#1283281
0$
#1299044
1$
#1299046
0$
#1314521
1$
#1314523
0$
#1330202
1$
#1330205
0$
#1345829
1$
#1345832
0$
#1360150
1$
#1360152
0$
#1361514
1$
#1361517
0$
#1377041
1$
#1377043
0$
#1392746
1$
#1392748
0$
#1408085
1$
#1408088
0$
#1423752
1$
#1423755
0$
#1439326
1$
#1439327
0$
#1446059
1$
#1446062
0$
#1455051
1$
#1455053
0$
#1470386
1$
#1470388
0$
#1486077
1$
#1486079
0$
#1501624
1$
#1501626
0$
#1517329
1$
#1517331
0$
#1532880
1$
#1532882
0$
#1548518
1$
#1548520
0$
#1563123
1$
#1563125
0$
#1578756
1$
#1578759
0$
#1594328
1$
#1594331
0$
#1609965
1$
#1609968
0$
#1625352
1$
#1625355
0$
#1641112
1$
#1641114
0$
#1656638
1$
#1656641
0$
#1672360
1$
#1672363
0$
#1687860
1$
#1687863
0$
#1703484
1$
#1703487
0$
#1718702
1$
#1718704
0$
#1734317
1$
#1734320
0$
#1749727
1$
#1749730
0$
#1765510
1$
#1765512
0$
#1781030
1$
#1781032
0$
#1796685
1$
#1796688
0$
#1812243
1$
#1812246
0$
#1827910
1$
#1827912
0$
#1843496
1$
#1843498
0$
#1859242
1$
#1859244
0$
#1874744
1$
#1874746
0$
#1890464
1$
#1890466
0$
#1906006
1$
#1906009
0$
#1921758
1$
#1921761
0$
#1937254
1$
#1937257
0$
#1953031
1$
#1953034
0$
#1967946
1$
#1967948
0$
#1998326
1$
#1998329
0$
#2013902
1$
#2013905
0$
