projects/zero-cost-logic-analyzer/lanaCOM_0.1/csrc/vcdTrans/sample_v24.vcd
$date
  Sun Sep 28 17:52:48 2008
$end
$version
  lanaCOM.exe, Revision 0.1, Sep 26 2008 - Copyright (c) 2008, H.-J. Heinrichs
$end
$timescale 1us $end
$scope module lanaCOM $end
$var wire 1 ' RX $end
$var wire 1 ( TX $end
$var wire 1 $ LOWACC $end
$var wire 32 % TRGCNT $end
$upscope $end
$enddefinitions $end
#0
1'
1(
b00000000000000000000000000000000 %
0$
#20000
0'
#20104
1'
#20208
0'
#20313
1'
#20417
0'
#20521
1'
#20625
0'
#20729
1'
#20833
0'
#20938
1'
#22000
0'
#22104
1'
#22208
1'
#22313
1'
#22417
1'
#22521
1'
#22625
1'
#22729
1'
#22833
1'
#22938
1'
#24000
0'
#24104
0'
#24208
0'
#24313
0'
#24417
0'
#24521
0'
#24625
0'
#24729
0'
#24833
0'
#24938
1'
#26000
1'
#30000
0(
#30104
0(
#30208
1(
#30313
0(
#30417
1(
#30521
0(
#30625
1(
#30729
0(
#30833
1(
#30938
1(
